{
  "friends": [
    {
      "id": "2",
      "photo": {
        "name": "./assets/img/bakhromovBrat.jpg"
      },
      "name": "Alisher Bakhromov",
      "age": 17
    },
    {
      "id": "1",
      "photo": {
        "name": "./assets/img/AliBrat.jpg"
      },
      "name": "Muhammad Ali",
      "age": 19
    },
    {
      "id": 0.3199801946475018,
      "photo": {},
      "name": "qweqwe",
      "age": "21"
    },
    {
      "id": 0.7082457166463956,
      "photo": {},
      "name": "qwe",
      "age": "21"
    }
  ],
  "personal_info": [
    {
      "avatar": "./assets/img/marvel.png",
      "name": "Jamoliddin Ziyadulaev",
      "age": 17,
      "nickname": "ZiBullet",
      "insta": "https://www.instagram.com/_zibull_",
      "telegram": "https://web.telegram.org/z/",
      "description": "I am a typical person who wants to be better"
    }
  ]
}